{
  "project_info": {
    "project_number": "559689929830",
    "firebase_url": "https://chat-online-5a143.firebaseio.com",
    "project_id": "chat-online-5a143",
    "storage_bucket": "chat-online-5a143.appspot.com"
  },
  "client": [
    {
      "client_info": {
        "mobilesdk_app_id": "1:559689929830:android:b4174bd720089138",
        "android_client_info": {
          "package_name": "br.eng.marcelinoborges.chatonline2"
        }
      },
      "oauth_client": [
        {
          "client_id": "559689929830-iau1uq2ofh45sfvf3e1i32abi04mt8m0.apps.googleusercontent.com",
          "client_type": 1,
          "android_info": {
            "package_name": "br.eng.marcelinoborges.chatonline2",
            "certificate_hash": "66c3148426ba59e09d888b3cfc0ed9aede37de78"
          }
        },
        {
          "client_id": "559689929830-68rqrhukj5est1cnen3timt0hhb258hr.apps.googleusercontent.com",
          "client_type": 3
        }
      ],
      "api_key": [
        {
          "current_key": "AIzaSyA0KHg3lZlA_hDr2ZI6NSDc-kS07hsF3j0"
        }
      ],
      "services": {
        "appinvite_service": {
          "other_platform_oauth_client": [
            {
              "client_id": "559689929830-68rqrhukj5est1cnen3timt0hhb258hr.apps.googleusercontent.com",
              "client_type": 3
            }
          ]
        }
      }
    }
  ],
  "configuration_version": "1"
}